# gmm-acc-stats-ali exp/mono-2/20.mdl "ark,s,cs:apply-cmvn  --utt2spk=ark:data/train_2kshort/split10/9/utt2spk scp:data/train_2kshort/split10/9/cmvn.scp scp:data/train_2kshort/split10/9/feats.scp ark:- | add-deltas  ark:- ark:- |" "ark:gunzip -c exp/mono-2/ali.9.gz|" exp/mono-2/20.9.acc 
# Started at Sat Mar 13 13:14:53 EET 2021
#
gmm-acc-stats-ali exp/mono-2/20.mdl 'ark,s,cs:apply-cmvn  --utt2spk=ark:data/train_2kshort/split10/9/utt2spk scp:data/train_2kshort/split10/9/cmvn.scp scp:data/train_2kshort/split10/9/feats.scp ark:- | add-deltas  ark:- ark:- |' 'ark:gunzip -c exp/mono-2/ali.9.gz|' exp/mono-2/20.9.acc 
apply-cmvn --utt2spk=ark:data/train_2kshort/split10/9/utt2spk scp:data/train_2kshort/split10/9/cmvn.scp scp:data/train_2kshort/split10/9/feats.scp ark:- 
add-deltas ark:- ark:- 
LOG (gmm-acc-stats-ali[5.5.268-f9828]:main():gmm-acc-stats-ali.cc:105) Processed 50 utterances; for utterance 730-358-0040 avg. like is -98.0077 over 239 frames.
LOG (gmm-acc-stats-ali[5.5.268-f9828]:main():gmm-acc-stats-ali.cc:105) Processed 100 utterances; for utterance 7302-86815-0081 avg. like is -99.8284 over 448 frames.
LOG (gmm-acc-stats-ali[5.5.268-f9828]:main():gmm-acc-stats-ali.cc:105) Processed 150 utterances; for utterance 7859-102518-0011 avg. like is -101.736 over 334 frames.
LOG (apply-cmvn[5.5.268-f9828]:main():apply-cmvn.cc:162) Applied cepstral mean normalization to 184 utterances, errors on 0
LOG (gmm-acc-stats-ali[5.5.268-f9828]:main():gmm-acc-stats-ali.cc:112) Done 184 files, 0 with errors.
LOG (gmm-acc-stats-ali[5.5.268-f9828]:main():gmm-acc-stats-ali.cc:115) Overall avg like per frame (Gaussian only) = -99.9289 over 64684 frames.
LOG (gmm-acc-stats-ali[5.5.268-f9828]:main():gmm-acc-stats-ali.cc:123) Written accs.
# Accounting: time=1 threads=1
# Ended (code 0) at Sat Mar 13 13:14:54 EET 2021, elapsed time 1 seconds
