# gmm-acc-stats-ali exp/mono-2/6.mdl "ark,s,cs:apply-cmvn  --utt2spk=ark:data/train_2kshort/split10/10/utt2spk scp:data/train_2kshort/split10/10/cmvn.scp scp:data/train_2kshort/split10/10/feats.scp ark:- | add-deltas  ark:- ark:- |" "ark:gunzip -c exp/mono-2/ali.10.gz|" exp/mono-2/6.10.acc 
# Started at Sat Mar 13 13:13:56 EET 2021
#
gmm-acc-stats-ali exp/mono-2/6.mdl 'ark,s,cs:apply-cmvn  --utt2spk=ark:data/train_2kshort/split10/10/utt2spk scp:data/train_2kshort/split10/10/cmvn.scp scp:data/train_2kshort/split10/10/feats.scp ark:- | add-deltas  ark:- ark:- |' 'ark:gunzip -c exp/mono-2/ali.10.gz|' exp/mono-2/6.10.acc 
add-deltas ark:- ark:- 
apply-cmvn --utt2spk=ark:data/train_2kshort/split10/10/utt2spk scp:data/train_2kshort/split10/10/cmvn.scp scp:data/train_2kshort/split10/10/feats.scp ark:- 
LOG (gmm-acc-stats-ali[5.5.268-f9828]:main():gmm-acc-stats-ali.cc:105) Processed 50 utterances; for utterance 8238-274553-0022 avg. like is -107.361 over 341 frames.
LOG (gmm-acc-stats-ali[5.5.268-f9828]:main():gmm-acc-stats-ali.cc:105) Processed 100 utterances; for utterance 8425-287387-0027 avg. like is -102.086 over 320 frames.
LOG (gmm-acc-stats-ali[5.5.268-f9828]:main():gmm-acc-stats-ali.cc:105) Processed 150 utterances; for utterance 8797-294123-0037 avg. like is -107.069 over 220 frames.
LOG (apply-cmvn[5.5.268-f9828]:main():apply-cmvn.cc:162) Applied cepstral mean normalization to 188 utterances, errors on 0
LOG (gmm-acc-stats-ali[5.5.268-f9828]:main():gmm-acc-stats-ali.cc:112) Done 188 files, 0 with errors.
LOG (gmm-acc-stats-ali[5.5.268-f9828]:main():gmm-acc-stats-ali.cc:115) Overall avg like per frame (Gaussian only) = -103.25 over 65870 frames.
LOG (gmm-acc-stats-ali[5.5.268-f9828]:main():gmm-acc-stats-ali.cc:123) Written accs.
# Accounting: time=1 threads=1
# Ended (code 0) at Sat Mar 13 13:13:57 EET 2021, elapsed time 1 seconds
